Coordinate based cleaning — coords • rOpenSci: scrubr
…
# Remove incomplete cases
NROW(df)

#> [1] 1499
df_inc <- dframe(df) %>% coord_incomplete()
NROW(df_inc)

#> [1] 1305
attr(df_inc, "coord_incomplete")

#> # A tibble: 194 x 5
#>    name  longitude latitude date                  key
#>    <chr>     <dbl>    <dbl> <dttm>              <int>
#>  1 NA           NA       NA NA                     NA
#>  2 NA           NA       NA NA                     NA
#>  3 NA           NA       NA NA                     NA
#>  4 NA           NA       NA NA                     NA
#>  5 NA           NA       NA NA                     NA
#>  6 NA           NA       NA NA                     NA
#>  7 NA           NA       NA NA                     NA
#>  8 NA           NA       NA NA                     NA
#>  9 NA           NA       NA NA                     NA
#> 10 NA           NA       NA NA                     NA
#> # … with 184 more rows
…
#>               name      mylon    mylat                date        key
#> 1 Ursus americanus  -79.68283 38.36662 2015-01-14 16:36:45 1065590124
#> 2 Ursus americanus  -82.42028 35.73304 2015-01-13 00:25:39 1065588899
#> 3 Ursus americanus  -99.09625 23.66893 2015-02-20 23:00:00 1098894889
#> 4 Ursus americanus  -72.77432 43.94883 2015-02-13 16:16:41 1065611122
#> 5 Ursus americanus  -72.34617 43.86464 2015-03-01 20:20:45 1088908315
#> 6 Ursus americanus -108.53674 32.65219 2015-03-29 17:06:54 1088932238
df[1, "mylat"] <- 170
dframe(df) %>% coord_impossible(lat = "mylat", lon = "mylon")

#> # A tibble: 1,499 x 5
#>    name              mylon mylat date                       key
#>  * <chr>             <dbl> <dbl> <dttm>                   <int>
#>  1 Ursus americanus  -82.4  35.7 2015-01-13 00:25:39 1065588899
#>  2 Ursus americanus  -99.1  23.7 2015-02-20 23:00:00 1098894889
#>  3 Ursus americanus  -72.8  43.9 2015-02-13 16:16:41 1065611122
#>  4 Ursus americanus  -72.3  43.9 2015-03-01 20:20:45 1088908315
#>  5 Ursus americanus -109.   32.7 2015-03-29 17:06:54 1088932238
#>  6 Ursus americanus -109.   32.7 2015-03-29 17:12:50 1088932273
#>  7 Ursus americanus -124.   40.1 2015-03-28 23:00:00 1132403409
#>  8 Ursus americanus  -78.3  36.9 2015-03-20 21:11:24 1088923534
#>  9 Ursus americanus  -76.8  35.5 2015-04-05 23:00:00 1088954559
#> 10 Ursus americanus -103.   29.3 2015-04-29 22:00:00 1088964797
#> # … with 1,489 more rows
…
